EESchema Schematic File Version 4
LIBS:coolboard2-cache
EELAYER 26 0
EELAYER END
$Descr A4 11693 8268
encoding utf-8
Sheet 1 1
Title ""
Date ""
Rev ""
Comp ""
Comment1 ""
Comment2 ""
Comment3 ""
Comment4 ""
$EndDescr
$Comp
L Regulator_Switching:MCP16311MS U2
U 1 1 5B24D651
P 3400 1625
F 0 "U2" H 3400 2192 50  0000 C CNN
F 1 "MCP16311MS" H 3400 2101 50  0000 C CNN
F 2 "Package_SO:MSOP-8_3x3mm_P0.65mm" H 3550 1375 50  0001 L CNN
F 3 "http://ww1.microchip.com/downloads/en/DeviceDoc/20005255B.pdf" H 3100 2175 50  0001 C CNN
	1    3400 1625
	1    0    0    -1  
$EndComp
$Comp
L Transistor_FET:Si2319CDS Q3
U 1 1 5B24D8F4
P 1150 1350
F 0 "Q3" H 1355 1396 50  0000 L CNN
F 1 "Si2319CDS" H 1355 1305 50  0000 L CNN
F 2 "Package_TO_SOT_SMD:SOT-23" H 1350 1275 50  0001 L CIN
F 3 "http://www.vishay.com/docs/66709/si2319cd.pdf" H 1150 1350 50  0001 L CNN
	1    1150 1350
	0    -1   -1   0   
$EndComp
$Comp
L Regulator_Linear:MCP1700-2802E_SOT23 U1
U 1 1 5B24DB29
P 7350 1175
F 0 "U1" H 7350 1417 50  0000 C CNN
F 1 "MCP1702-3300E" H 7350 1326 50  0000 C CNN
F 2 "Package_TO_SOT_SMD:SOT-23" H 7350 1400 50  0001 C CNN
F 3 "http://ww1.microchip.com/downloads/en/DeviceDoc/20001826C.pdf" H 7350 1175 50  0001 C CNN
	1    7350 1175
	1    0    0    -1  
$EndComp
$Comp
L Transistor_FET:FDS6930A Q1
U 1 1 5B24DE8B
P 1175 6400
F 0 "Q1" H 1380 6446 50  0000 L CNN
F 1 "FDS6930A" H 1380 6355 50  0000 L CNN
F 2 "Package_SO:SOIC-8_3.9x4.9mm_P1.27mm" H 1375 6325 50  0001 L CIN
F 3 "http://www.onsemi.com/pub/Collateral/FDS6930A-D.PDF" H 1175 6400 50  0001 L CNN
	1    1175 6400
	1    0    0    -1  
$EndComp
$Comp
L Transistor_FET:FDS6930A Q1
U 2 1 5B24DFC5
P 2425 6425
F 0 "Q1" H 2630 6471 50  0000 L CNN
F 1 "FDS6930A" H 2630 6380 50  0000 L CNN
F 2 "Package_SO:SOIC-8_3.9x4.9mm_P1.27mm" H 2625 6350 50  0001 L CIN
F 3 "http://www.onsemi.com/pub/Collateral/FDS6930A-D.PDF" H 2425 6425 50  0001 L CNN
	2    2425 6425
	1    0    0    -1  
$EndComp
$Comp
L Transistor_FET:FDS6930A Q2
U 1 1 5B24E0BA
P 3500 6425
F 0 "Q2" H 3705 6471 50  0000 L CNN
F 1 "FDS6930A" H 3705 6380 50  0000 L CNN
F 2 "Package_SO:SOIC-8_3.9x4.9mm_P1.27mm" H 3700 6350 50  0001 L CIN
F 3 "http://www.onsemi.com/pub/Collateral/FDS6930A-D.PDF" H 3500 6425 50  0001 L CNN
	1    3500 6425
	1    0    0    -1  
$EndComp
$Comp
L Transistor_FET:FDS6930A Q2
U 2 1 5B24E14A
P 4725 6450
F 0 "Q2" H 4930 6496 50  0000 L CNN
F 1 "FDS6930A" H 4930 6405 50  0000 L CNN
F 2 "Package_SO:SOIC-8_3.9x4.9mm_P1.27mm" H 4925 6375 50  0001 L CIN
F 3 "http://www.onsemi.com/pub/Collateral/FDS6930A-D.PDF" H 4725 6450 50  0001 L CNN
	2    4725 6450
	1    0    0    -1  
$EndComp
$Comp
L Connector:Conn_01x05_Male J1
U 1 1 5B24E338
P 8450 2025
F 0 "J1" H 8556 2403 50  0000 C CNN
F 1 "USB" H 8556 2312 50  0000 C CNN
F 2 "Connector_PinHeader_2.54mm:PinHeader_1x05_P2.54mm_Vertical" H 8450 2025 50  0001 C CNN
F 3 "~" H 8450 2025 50  0001 C CNN
	1    8450 2025
	1    0    0    -1  
$EndComp
$Comp
L Connector:Screw_Terminal_01x02 J2
U 1 1 5B24E584
P 750 1250
F 0 "J2" H 670 925 50  0000 C CNN
F 1 "IN" H 670 1016 50  0000 C CNN
F 2 "TerminalBlock:TerminalBlock_bornier-2_P5.08mm" H 750 1250 50  0001 C CNN
F 3 "~" H 750 1250 50  0001 C CNN
	1    750  1250
	-1   0    0    1   
$EndComp
$Comp
L Connector:Screw_Terminal_01x02 J3
U 1 1 5B24E9A6
P 1175 5400
F 0 "J3" V 1141 5212 50  0000 R CNN
F 1 "OUT1" V 1050 5212 50  0000 R CNN
F 2 "TerminalBlock:TerminalBlock_bornier-2_P5.08mm" H 1175 5400 50  0001 C CNN
F 3 "~" H 1175 5400 50  0001 C CNN
	1    1175 5400
	0    -1   -1   0   
$EndComp
$Comp
L Connector:Screw_Terminal_01x02 J4
U 1 1 5B24E9E6
P 2425 5425
F 0 "J4" V 2391 5237 50  0000 R CNN
F 1 "OUT2" V 2300 5237 50  0000 R CNN
F 2 "TerminalBlock:TerminalBlock_bornier-2_P5.08mm" H 2425 5425 50  0001 C CNN
F 3 "~" H 2425 5425 50  0001 C CNN
	1    2425 5425
	0    -1   -1   0   
$EndComp
$Comp
L Connector:Screw_Terminal_01x02 J6
U 1 1 5B24EAA4
P 4725 5425
F 0 "J6" V 4691 5237 50  0000 R CNN
F 1 "OUT4" V 4600 5237 50  0000 R CNN
F 2 "TerminalBlock:TerminalBlock_bornier-2_P5.08mm" H 4725 5425 50  0001 C CNN
F 3 "~" H 4725 5425 50  0001 C CNN
	1    4725 5425
	0    -1   -1   0   
$EndComp
$Comp
L Connector:Screw_Terminal_01x02 J5
U 1 1 5B24EB0A
P 3500 5425
F 0 "J5" V 3466 5237 50  0000 R CNN
F 1 "OUT3" V 3375 5237 50  0000 R CNN
F 2 "TerminalBlock:TerminalBlock_bornier-2_P5.08mm" H 3500 5425 50  0001 C CNN
F 3 "~" H 3500 5425 50  0001 C CNN
	1    3500 5425
	0    -1   -1   0   
$EndComp
$Comp
L Device:R R3
U 1 1 5B24F680
P 1475 1550
F 0 "R3" H 1545 1596 50  0000 L CNN
F 1 "R" H 1545 1505 50  0000 L CNN
F 2 "Resistor_SMD:R_0603_1608Metric_Pad0.84x1.00mm_HandSolder" V 1405 1550 50  0001 C CNN
F 3 "~" H 1475 1550 50  0001 C CNN
	1    1475 1550
	1    0    0    -1  
$EndComp
$Comp
L Device:R R2
U 1 1 5B24F792
P 1475 1975
F 0 "R2" H 1545 2021 50  0000 L CNN
F 1 "R" H 1545 1930 50  0000 L CNN
F 2 "Resistor_SMD:R_0603_1608Metric_Pad0.84x1.00mm_HandSolder" V 1405 1975 50  0001 C CNN
F 3 "~" H 1475 1975 50  0001 C CNN
	1    1475 1975
	1    0    0    -1  
$EndComp
$Comp
L Connector:Conn_01x04_Male J7
U 1 1 5B24FBFE
P 8425 1225
F 0 "J7" H 8531 1503 50  0000 C CNN
F 1 "SWD" H 8531 1412 50  0000 C CNN
F 2 "Connector_PinHeader_2.54mm:PinHeader_1x04_P2.54mm_Vertical" H 8425 1225 50  0001 C CNN
F 3 "~" H 8425 1225 50  0001 C CNN
	1    8425 1225
	1    0    0    -1  
$EndComp
Text GLabel 9975 4325 2    50   Input ~ 0
SWD_IO
Text GLabel 9975 4425 2    50   Input ~ 0
SWD_CLK
Text GLabel 9975 3025 2    50   Input ~ 0
AN_12V_MEASURE
Text GLabel 3575 3925 0    50   Input ~ 0
LOAD_SW3
Text GLabel 9975 3825 2    50   Input ~ 0
LOAD_SW4
Text GLabel 3575 3825 0    50   Input ~ 0
LOAD_SW2
Text GLabel 9975 3725 2    50   Input ~ 0
LOAD_SW1
Text GLabel 9975 3425 2    50   Input ~ 0
RF_CSN
Text GLabel 3575 4025 0    50   Input ~ 0
SPI_CLK
Text GLabel 3575 4125 0    50   Input ~ 0
SPI_MISO
Text GLabel 3575 4225 0    50   Input ~ 0
SPI_MOSI
Text GLabel 9975 4125 2    50   Input ~ 0
USB_DM
Text GLabel 9975 4225 2    50   Input ~ 0
USB_DP
Text GLabel 9975 3225 2    50   Input ~ 0
RF_CE
Text GLabel 9975 3325 2    50   Input ~ 0
RF_IRQ
$Comp
L Device:R_Small R1
U 1 1 5B2516E5
P 2150 4475
F 0 "R1" V 2225 4275 50  0000 C CNN
F 1 "10k" V 2225 4475 50  0000 C CNN
F 2 "Resistor_SMD:R_0603_1608Metric_Pad0.84x1.00mm_HandSolder" H 2150 4475 50  0001 C CNN
F 3 "~" H 2150 4475 50  0001 C CNN
	1    2150 4475
	0    1    1    0   
$EndComp
Wire Wire Line
	1475 1825 1475 1775
Text GLabel 1575 1775 2    50   Input ~ 0
AN_12V_MEASURE
Wire Wire Line
	1475 1775 1575 1775
Connection ~ 1475 1775
Wire Wire Line
	1475 1775 1475 1700
$Comp
L Device:LED D1
U 1 1 5B2527CA
P 5625 6100
F 0 "D1" V 5663 5983 50  0000 R CNN
F 1 "LED" V 5572 5983 50  0000 R CNN
F 2 "LED_SMD:LED_1206_3216Metric" H 5625 6100 50  0001 C CNN
F 3 "~" H 5625 6100 50  0001 C CNN
	1    5625 6100
	0    -1   -1   0   
$EndComp
$Comp
L Device:R R4
U 1 1 5B252951
P 5625 5800
F 0 "R4" H 5695 5846 50  0000 L CNN
F 1 "10k" H 5695 5755 50  0000 L CNN
F 2 "Resistor_SMD:R_0603_1608Metric_Pad0.84x1.00mm_HandSolder" V 5555 5800 50  0001 C CNN
F 3 "~" H 5625 5800 50  0001 C CNN
	1    5625 5800
	1    0    0    -1  
$EndComp
Text GLabel 9975 3525 2    50   Input ~ 0
LED1
$Comp
L power:GND #PWR0101
U 1 1 5B252DB8
P 9925 5400
F 0 "#PWR0101" H 9925 5150 50  0001 C CNN
F 1 "GND" V 9930 5272 50  0000 R CNN
F 2 "" H 9925 5400 50  0001 C CNN
F 3 "" H 9925 5400 50  0001 C CNN
	1    9925 5400
	0    -1   -1   0   
$EndComp
Text GLabel 9925 5500 2    50   Input ~ 0
BUTTON1_IRQ
Text GLabel 9925 5600 2    50   Input ~ 0
BUTTON2_IRQ
Text GLabel 9925 5700 2    50   Input ~ 0
BUTTON3_IRQ
Text GLabel 9925 5800 2    50   Input ~ 0
BUTTON4_IRQ
Text GLabel 9975 3925 2    50   Input ~ 0
BUTTON1_IRQ
Text GLabel 9975 4025 2    50   Input ~ 0
BUTTON2_IRQ
Text GLabel 9975 3625 2    50   Input ~ 0
BUTTON4_IRQ
Text GLabel 9975 3125 2    50   Input ~ 0
BUTTON3_IRQ
Text GLabel 8650 2125 2    50   Input ~ 0
USB_DM
Text GLabel 8650 2025 2    50   Input ~ 0
USB_DP
Text GLabel 8625 1325 2    50   Input ~ 0
SWD_IO
Text GLabel 8625 1225 2    50   Input ~ 0
SWD_CLK
$Comp
L power:GND #PWR0102
U 1 1 5B2537F1
P 8650 1825
F 0 "#PWR0102" H 8650 1575 50  0001 C CNN
F 1 "GND" V 8655 1697 50  0000 R CNN
F 2 "" H 8650 1825 50  0001 C CNN
F 3 "" H 8650 1825 50  0001 C CNN
	1    8650 1825
	0    -1   -1   0   
$EndComp
NoConn ~ 8650 1925
Text GLabel 3575 3025 0    50   Input ~ 0
NRST
Text GLabel 8625 1425 2    50   Input ~ 0
NRST
$Comp
L power:GND #PWR0104
U 1 1 5B253BAD
P 8625 1125
F 0 "#PWR0104" H 8625 875 50  0001 C CNN
F 1 "GND" V 8630 997 50  0000 R CNN
F 2 "" H 8625 1125 50  0001 C CNN
F 3 "" H 8625 1125 50  0001 C CNN
	1    8625 1125
	0    -1   -1   0   
$EndComp
Text GLabel 9925 6100 2    50   Input ~ 0
PB7
Text GLabel 3575 4425 0    50   Input ~ 0
PB7
$Comp
L Device:L L1
U 1 1 5B254584
P 4075 1425
F 0 "L1" V 4265 1425 50  0000 C CNN
F 1 "10uH" V 4174 1425 50  0000 C CNN
F 2 "Inductor_SMD:L_Wuerth_WE-PD-Typ-M-Typ-S" H 4075 1425 50  0001 C CNN
F 3 "~" H 4075 1425 50  0001 C CNN
	1    4075 1425
	0    -1   -1   0   
$EndComp
$Comp
L power:GND #PWR0106
U 1 1 5B254D7C
P 975 1125
F 0 "#PWR0106" H 975 875 50  0001 C CNN
F 1 "GND" H 980 952 50  0000 C CNN
F 2 "" H 975 1125 50  0001 C CNN
F 3 "" H 975 1125 50  0001 C CNN
	1    975  1125
	-1   0    0    1   
$EndComp
$Comp
L power:GND #PWR0108
U 1 1 5B255065
P 1475 2125
F 0 "#PWR0108" H 1475 1875 50  0001 C CNN
F 1 "GND" H 1480 1952 50  0000 C CNN
F 2 "" H 1475 2125 50  0001 C CNN
F 3 "" H 1475 2125 50  0001 C CNN
	1    1475 2125
	1    0    0    -1  
$EndComp
Text GLabel 2225 6425 0    50   Input ~ 0
LOAD_SW2
Text GLabel 975  6400 0    50   Input ~ 0
LOAD_SW1
Text GLabel 3300 6425 0    50   Input ~ 0
LOAD_SW3
Text GLabel 4525 6450 0    50   Input ~ 0
LOAD_SW4
$Comp
L power:GND #PWR0105
U 1 1 5B255EFA
P 1150 1550
F 0 "#PWR0105" H 1150 1300 50  0001 C CNN
F 1 "GND" V 1155 1422 50  0000 R CNN
F 2 "" H 1150 1550 50  0001 C CNN
F 3 "" H 1150 1550 50  0001 C CNN
	1    1150 1550
	1    0    0    -1  
$EndComp
$Comp
L power:+12V #PWR0107
U 1 1 5B256118
P 1675 1250
F 0 "#PWR0107" H 1675 1100 50  0001 C CNN
F 1 "+12V" H 1690 1423 50  0000 C CNN
F 2 "" H 1675 1250 50  0001 C CNN
F 3 "" H 1675 1250 50  0001 C CNN
	1    1675 1250
	0    1    1    0   
$EndComp
Wire Wire Line
	1275 6600 1275 6750
Wire Wire Line
	2525 6750 2525 6625
Wire Wire Line
	4825 6750 4825 6650
$Comp
L power:+12V #PWR0109
U 1 1 5B2587D8
P 1175 5600
F 0 "#PWR0109" H 1175 5450 50  0001 C CNN
F 1 "+12V" H 1190 5773 50  0000 C CNN
F 2 "" H 1175 5600 50  0001 C CNN
F 3 "" H 1175 5600 50  0001 C CNN
	1    1175 5600
	-1   0    0    1   
$EndComp
Text GLabel 3575 4525 0    50   Input ~ 0
BOOT
Text GLabel 2250 4475 2    50   Input ~ 0
BOOT
$Comp
L power:+3V3 #PWR0110
U 1 1 5B258C83
P 2050 4475
F 0 "#PWR0110" H 2050 4325 50  0001 C CNN
F 1 "+3V3" V 2065 4603 50  0000 L CNN
F 2 "" H 2050 4475 50  0001 C CNN
F 3 "" H 2050 4475 50  0001 C CNN
	1    2050 4475
	0    -1   -1   0   
$EndComp
$Comp
L Device:R_Small R5
U 1 1 5B258DC2
P 2125 4700
F 0 "R5" V 2200 4500 50  0000 C CNN
F 1 "10k" V 2200 4700 50  0000 C CNN
F 2 "Resistor_SMD:R_0603_1608Metric_Pad0.84x1.00mm_HandSolder" H 2125 4700 50  0001 C CNN
F 3 "~" H 2125 4700 50  0001 C CNN
	1    2125 4700
	0    1    1    0   
$EndComp
Text GLabel 2225 4700 2    50   Input ~ 0
BOOT
$Comp
L power:GND #PWR0111
U 1 1 5B258FE1
P 2025 4700
F 0 "#PWR0111" H 2025 4450 50  0001 C CNN
F 1 "GND" V 2030 4572 50  0000 R CNN
F 2 "" H 2025 4700 50  0001 C CNN
F 3 "" H 2025 4700 50  0001 C CNN
	1    2025 4700
	0    1    1    0   
$EndComp
Wire Wire Line
	3600 6625 3600 6750
Wire Wire Line
	2925 6850 2925 6750
Wire Wire Line
	1275 6750 2525 6750
Connection ~ 2925 6750
Wire Wire Line
	2525 6750 2925 6750
Connection ~ 3600 6750
Wire Wire Line
	3600 6750 4825 6750
Wire Wire Line
	2925 6750 3600 6750
Connection ~ 2525 6750
Wire Wire Line
	1275 6200 1275 5600
Wire Wire Line
	2525 5625 2525 6225
Wire Wire Line
	3600 6225 3600 5625
Wire Wire Line
	4825 5625 4825 6250
$Comp
L power:GND #PWR0115
U 1 1 5B25BE29
P 2925 6850
F 0 "#PWR0115" H 2925 6600 50  0001 C CNN
F 1 "GND" H 2930 6677 50  0000 C CNN
F 2 "" H 2925 6850 50  0001 C CNN
F 3 "" H 2925 6850 50  0001 C CNN
	1    2925 6850
	1    0    0    -1  
$EndComp
Text GLabel 5625 5650 1    50   Input ~ 0
LED1
$Comp
L power:GND #PWR0116
U 1 1 5B25C29A
P 5625 6250
F 0 "#PWR0116" H 5625 6000 50  0001 C CNN
F 1 "GND" H 5630 6077 50  0000 C CNN
F 2 "" H 5625 6250 50  0001 C CNN
F 3 "" H 5625 6250 50  0001 C CNN
	1    5625 6250
	1    0    0    -1  
$EndComp
$Comp
L Device:C_Small C11
U 1 1 5B25C714
P 9375 1275
F 0 "C11" H 9467 1321 50  0000 L CNN
F 1 "100nF" H 9467 1230 50  0000 L CNN
F 2 "Capacitor_SMD:C_0603_1608Metric_Pad0.84x1.00mm_HandSolder" H 9375 1275 50  0001 C CNN
F 3 "~" H 9375 1275 50  0001 C CNN
	1    9375 1275
	1    0    0    -1  
$EndComp
$Comp
L Device:C_Small C12
U 1 1 5B25C7C2
P 9850 1275
F 0 "C12" H 9942 1321 50  0000 L CNN
F 1 "100nF" H 9942 1230 50  0000 L CNN
F 2 "Capacitor_SMD:C_0603_1608Metric_Pad0.84x1.00mm_HandSolder" H 9850 1275 50  0001 C CNN
F 3 "~" H 9850 1275 50  0001 C CNN
	1    9850 1275
	1    0    0    -1  
$EndComp
$Comp
L Device:C_Small C13
U 1 1 5B25C87A
P 10225 1275
F 0 "C13" H 10317 1321 50  0000 L CNN
F 1 "100nF" H 10317 1230 50  0000 L CNN
F 2 "Capacitor_SMD:C_0603_1608Metric_Pad0.84x1.00mm_HandSolder" H 10225 1275 50  0001 C CNN
F 3 "~" H 10225 1275 50  0001 C CNN
	1    10225 1275
	1    0    0    -1  
$EndComp
$Comp
L power:GND #PWR0117
U 1 1 5B25CA58
P 9850 1550
F 0 "#PWR0117" H 9850 1300 50  0001 C CNN
F 1 "GND" H 9855 1377 50  0000 C CNN
F 2 "" H 9850 1550 50  0001 C CNN
F 3 "" H 9850 1550 50  0001 C CNN
	1    9850 1550
	1    0    0    -1  
$EndComp
Wire Wire Line
	9375 1375 9375 1475
Wire Wire Line
	9375 1475 9850 1475
Wire Wire Line
	9850 1475 9850 1375
Wire Wire Line
	9850 1475 10225 1475
Wire Wire Line
	10225 1475 10225 1375
Connection ~ 9850 1475
Wire Wire Line
	9850 1550 9850 1475
Wire Wire Line
	9375 1175 9375 1100
Wire Wire Line
	9375 1100 9850 1100
Wire Wire Line
	9850 1100 9850 1175
Wire Wire Line
	9850 1100 10225 1100
Wire Wire Line
	10225 1100 10225 1175
Connection ~ 9850 1100
$Comp
L power:+3V3 #PWR0118
U 1 1 5B25D75A
P 9850 1050
F 0 "#PWR0118" H 9850 900 50  0001 C CNN
F 1 "+3V3" H 9865 1223 50  0000 C CNN
F 2 "" H 9850 1050 50  0001 C CNN
F 3 "" H 9850 1050 50  0001 C CNN
	1    9850 1050
	1    0    0    -1  
$EndComp
Wire Wire Line
	9850 1100 9850 1050
$Comp
L power:+3V3 #PWR0119
U 1 1 5B25DFF1
P 6775 2350
F 0 "#PWR0119" H 6775 2200 50  0001 C CNN
F 1 "+3V3" H 6790 2523 50  0000 C CNN
F 2 "" H 6775 2350 50  0001 C CNN
F 3 "" H 6775 2350 50  0001 C CNN
	1    6775 2350
	1    0    0    -1  
$EndComp
Wire Wire Line
	6675 4925 6675 4975
Wire Wire Line
	6675 4975 6725 4975
Wire Wire Line
	6775 4975 6775 4925
Wire Wire Line
	6725 5025 6725 4975
Connection ~ 6725 4975
Wire Wire Line
	6725 4975 6775 4975
Wire Wire Line
	6675 2525 6675 2450
Wire Wire Line
	6675 2450 6775 2450
Wire Wire Line
	6775 2450 6775 2525
Wire Wire Line
	6775 2450 6875 2450
Wire Wire Line
	6875 2450 6875 2525
Connection ~ 6775 2450
Wire Wire Line
	6775 2450 6775 2350
$Comp
L Device:C C3
U 1 1 5B2619B1
P 2850 1625
F 0 "C3" V 3000 1625 50  0000 C CNN
F 1 "1uF" V 2700 1625 50  0000 C CNN
F 2 "Capacitor_SMD:C_0603_1608Metric_Pad0.84x1.00mm_HandSolder" H 2888 1475 50  0001 C CNN
F 3 "~" H 2850 1625 50  0001 C CNN
	1    2850 1625
	0    -1   -1   0   
$EndComp
$Comp
L power:GND #PWR0120
U 1 1 5B261C07
P 2700 1625
F 0 "#PWR0120" H 2700 1375 50  0001 C CNN
F 1 "GND" V 2705 1497 50  0000 R CNN
F 2 "" H 2700 1625 50  0001 C CNN
F 3 "" H 2700 1625 50  0001 C CNN
	1    2700 1625
	0    1    1    0   
$EndComp
Wire Wire Line
	2850 1325 2950 1325
Wire Wire Line
	2950 1325 2950 1425
Wire Wire Line
	2950 1425 3000 1425
$Comp
L Device:R R6
U 1 1 5B2653D5
P 4275 1600
F 0 "R6" H 4345 1646 50  0000 L CNN
F 1 "53k" H 4345 1555 50  0000 L CNN
F 2 "Resistor_SMD:R_0603_1608Metric_Pad0.84x1.00mm_HandSolder" V 4205 1600 50  0001 C CNN
F 3 "~" H 4275 1600 50  0001 C CNN
	1    4275 1600
	1    0    0    -1  
$EndComp
$Comp
L Device:R R7
U 1 1 5B2653DC
P 4275 2000
F 0 "R7" H 4345 2046 50  0000 L CNN
F 1 "10k" H 4345 1955 50  0000 L CNN
F 2 "Resistor_SMD:R_0603_1608Metric_Pad0.84x1.00mm_HandSolder" V 4205 2000 50  0001 C CNN
F 3 "~" H 4275 2000 50  0001 C CNN
	1    4275 2000
	1    0    0    -1  
$EndComp
$Comp
L power:GND #PWR0121
U 1 1 5B2653EE
P 4275 2150
F 0 "#PWR0121" H 4275 1900 50  0001 C CNN
F 1 "GND" H 4280 1977 50  0000 C CNN
F 2 "" H 4275 2150 50  0001 C CNN
F 3 "" H 4275 2150 50  0001 C CNN
	1    4275 2150
	1    0    0    -1  
$EndComp
Wire Wire Line
	3400 1925 3400 1975
Wire Wire Line
	3400 1975 3450 1975
Wire Wire Line
	3500 1975 3500 1925
$Comp
L power:GND #PWR0122
U 1 1 5B266B4E
P 3450 2000
F 0 "#PWR0122" H 3450 1750 50  0001 C CNN
F 1 "GND" H 3455 1827 50  0000 C CNN
F 2 "" H 3450 2000 50  0001 C CNN
F 3 "" H 3450 2000 50  0001 C CNN
	1    3450 2000
	1    0    0    -1  
$EndComp
Wire Wire Line
	3450 2000 3450 1975
Connection ~ 3450 1975
Wire Wire Line
	3450 1975 3500 1975
Wire Wire Line
	2950 1325 3000 1325
Connection ~ 2950 1325
Wire Wire Line
	4225 1425 4275 1425
Wire Wire Line
	3800 1625 4000 1625
Wire Wire Line
	4000 1625 4000 1800
Wire Wire Line
	4000 1800 4275 1800
Wire Wire Line
	4275 1800 4275 1750
Wire Wire Line
	4275 1800 4275 1850
Connection ~ 4275 1800
Wire Wire Line
	3925 1425 3875 1425
Wire Wire Line
	4275 1425 4275 1450
$Comp
L Device:C C7
U 1 1 5B26E005
P 4625 1650
F 0 "C7" H 4740 1696 50  0000 L CNN
F 1 "10uF" H 4740 1605 50  0000 L CNN
F 2 "Capacitor_SMD:C_0603_1608Metric" H 4663 1500 50  0001 C CNN
F 3 "~" H 4625 1650 50  0001 C CNN
	1    4625 1650
	1    0    0    -1  
$EndComp
$Comp
L Device:C C8
U 1 1 5B26FF5D
P 4975 1650
F 0 "C8" H 5090 1696 50  0000 L CNN
F 1 "10uF" H 5090 1605 50  0000 L CNN
F 2 "Capacitor_SMD:C_0603_1608Metric" H 5013 1500 50  0001 C CNN
F 3 "~" H 4975 1650 50  0001 C CNN
	1    4975 1650
	1    0    0    -1  
$EndComp
$Comp
L Device:C C2
U 1 1 5B270FDD
P 2850 1175
F 0 "C2" H 2965 1221 50  0000 L CNN
F 1 "10uF" H 2965 1130 50  0000 L CNN
F 2 "Capacitor_SMD:C_0603_1608Metric_Pad0.84x1.00mm_HandSolder" H 2888 1025 50  0001 C CNN
F 3 "~" H 2850 1175 50  0001 C CNN
	1    2850 1175
	1    0    0    -1  
$EndComp
$Comp
L Device:C C6
U 1 1 5B2710DF
P 4000 1125
F 0 "C6" V 3748 1125 50  0000 C CNN
F 1 "100nF" V 3839 1125 50  0000 C CNN
F 2 "Capacitor_SMD:C_0603_1608Metric" H 4038 975 50  0001 C CNN
F 3 "~" H 4000 1125 50  0001 C CNN
	1    4000 1125
	0    1    1    0   
$EndComp
Wire Wire Line
	3800 1325 3800 1125
Wire Wire Line
	3800 1125 3850 1125
Wire Wire Line
	4200 1125 4200 1275
Wire Wire Line
	4200 1275 3875 1275
Wire Wire Line
	3875 1275 3875 1425
Connection ~ 3875 1425
Wire Wire Line
	3875 1425 3800 1425
Wire Wire Line
	4200 1125 4150 1125
$Comp
L Device:C C1
U 1 1 5B275BC1
P 2450 1175
F 0 "C1" H 2565 1221 50  0000 L CNN
F 1 "10uF" H 2565 1130 50  0000 L CNN
F 2 "Capacitor_SMD:C_0603_1608Metric_Pad0.84x1.00mm_HandSolder" H 2488 1025 50  0001 C CNN
F 3 "~" H 2450 1175 50  0001 C CNN
	1    2450 1175
	1    0    0    -1  
$EndComp
Connection ~ 2850 1325
Wire Wire Line
	2450 950  2625 950 
Wire Wire Line
	2850 950  2850 1025
$Comp
L power:GND #PWR0123
U 1 1 5B27AEE9
P 2625 900
F 0 "#PWR0123" H 2625 650 50  0001 C CNN
F 1 "GND" H 2630 727 50  0000 C CNN
F 2 "" H 2625 900 50  0001 C CNN
F 3 "" H 2625 900 50  0001 C CNN
	1    2625 900 
	-1   0    0    1   
$EndComp
Wire Wire Line
	2625 900  2625 950 
Connection ~ 2625 950 
Wire Wire Line
	2625 950  2850 950 
Wire Wire Line
	4275 1425 4625 1425
Wire Wire Line
	4625 1425 4625 1500
Connection ~ 4275 1425
Wire Wire Line
	4625 1425 4775 1425
Wire Wire Line
	4975 1425 4975 1500
Connection ~ 4625 1425
Wire Wire Line
	4625 1800 4625 1875
Wire Wire Line
	4975 1875 4975 1800
$Comp
L power:GND #PWR0124
U 1 1 5B282D5C
P 4800 1925
F 0 "#PWR0124" H 4800 1675 50  0001 C CNN
F 1 "GND" H 4805 1752 50  0000 C CNN
F 2 "" H 4800 1925 50  0001 C CNN
F 3 "" H 4800 1925 50  0001 C CNN
	1    4800 1925
	1    0    0    -1  
$EndComp
Wire Wire Line
	4800 1925 4800 1875
Wire Wire Line
	4625 1875 4800 1875
Connection ~ 4800 1875
Wire Wire Line
	4800 1875 4975 1875
$Comp
L power:+12V #PWR0125
U 1 1 5B28CA4D
P 2350 1325
F 0 "#PWR0125" H 2350 1175 50  0001 C CNN
F 1 "+12V" H 2365 1498 50  0000 C CNN
F 2 "" H 2350 1325 50  0001 C CNN
F 3 "" H 2350 1325 50  0001 C CNN
	1    2350 1325
	-1   0    0    1   
$EndComp
$Comp
L power:+5V #PWR0126
U 1 1 5B28CC66
P 5100 1375
F 0 "#PWR0126" H 5100 1225 50  0001 C CNN
F 1 "+5V" H 5115 1548 50  0000 C CNN
F 2 "" H 5100 1375 50  0001 C CNN
F 3 "" H 5100 1375 50  0001 C CNN
	1    5100 1375
	1    0    0    -1  
$EndComp
Wire Wire Line
	4975 1425 5100 1425
Wire Wire Line
	5100 1425 5100 1375
Connection ~ 4975 1425
$Comp
L power:+5V #PWR0127
U 1 1 5B28ECF9
P 6875 1175
F 0 "#PWR0127" H 6875 1025 50  0001 C CNN
F 1 "+5V" V 6890 1303 50  0000 L CNN
F 2 "" H 6875 1175 50  0001 C CNN
F 3 "" H 6875 1175 50  0001 C CNN
	1    6875 1175
	0    -1   -1   0   
$EndComp
$Comp
L Device:C C9
U 1 1 5B290BB9
P 6975 1400
F 0 "C9" H 7090 1446 50  0000 L CNN
F 1 "1uF" H 7090 1355 50  0000 L CNN
F 2 "Capacitor_SMD:C_0603_1608Metric" H 7013 1250 50  0001 C CNN
F 3 "~" H 6975 1400 50  0001 C CNN
	1    6975 1400
	1    0    0    -1  
$EndComp
Wire Wire Line
	6975 1175 6975 1250
Wire Wire Line
	6875 1175 6975 1175
Connection ~ 6975 1175
Wire Wire Line
	6975 1175 7050 1175
Wire Wire Line
	6975 1550 6975 1575
Wire Wire Line
	6975 1575 7350 1575
Wire Wire Line
	7350 1575 7350 1475
$Comp
L Device:C C10
U 1 1 5B29714C
P 7725 1375
F 0 "C10" H 7840 1421 50  0000 L CNN
F 1 "1uF" H 7840 1330 50  0000 L CNN
F 2 "Capacitor_SMD:C_0603_1608Metric_Pad0.84x1.00mm_HandSolder" H 7763 1225 50  0001 C CNN
F 3 "~" H 7725 1375 50  0001 C CNN
	1    7725 1375
	1    0    0    -1  
$EndComp
Wire Wire Line
	7650 1175 7725 1175
Wire Wire Line
	7725 1175 7725 1225
Wire Wire Line
	7725 1525 7725 1575
Wire Wire Line
	7725 1575 7350 1575
Connection ~ 7350 1575
$Comp
L power:+3V3 #PWR0128
U 1 1 5B2A2B7B
P 7800 1175
F 0 "#PWR0128" H 7800 1025 50  0001 C CNN
F 1 "+3V3" V 7815 1303 50  0000 L CNN
F 2 "" H 7800 1175 50  0001 C CNN
F 3 "" H 7800 1175 50  0001 C CNN
	1    7800 1175
	0    1    1    0   
$EndComp
Connection ~ 7725 1175
Wire Wire Line
	7725 1175 7800 1175
$Comp
L power:GND #PWR0129
U 1 1 5B2B23C0
P 7350 1675
F 0 "#PWR0129" H 7350 1425 50  0001 C CNN
F 1 "GND" H 7355 1502 50  0000 C CNN
F 2 "" H 7350 1675 50  0001 C CNN
F 3 "" H 7350 1675 50  0001 C CNN
	1    7350 1675
	1    0    0    -1  
$EndComp
Wire Wire Line
	7350 1575 7350 1675
$Comp
L Connector_Generic:Conn_02x04_Odd_Even J9
U 1 1 5B2B543C
P 8475 5575
F 0 "J9" H 8525 5892 50  0000 C CNN
F 1 "NRF24LO+" H 8525 5801 50  0000 C CNN
F 2 "Connector_PinHeader_2.54mm:PinHeader_2x04_P2.54mm_Vertical" H 8475 5575 50  0001 C CNN
F 3 "~" H 8475 5575 50  0001 C CNN
	1    8475 5575
	1    0    0    -1  
$EndComp
Text GLabel 8775 5575 2    50   Input ~ 0
RF_CSN
Text GLabel 8775 5775 2    50   Input ~ 0
RF_IRQ
Text GLabel 8775 5675 2    50   Input ~ 0
SPI_MOSI
Text GLabel 8275 5775 0    50   Input ~ 0
SPI_MISO
Text GLabel 8275 5675 0    50   Input ~ 0
SPI_CLK
Text GLabel 8275 5575 0    50   Input ~ 0
RF_CE
$Comp
L power:+3V3 #PWR0130
U 1 1 5B2B5B17
P 8775 5475
F 0 "#PWR0130" H 8775 5325 50  0001 C CNN
F 1 "+3V3" V 8790 5603 50  0000 L CNN
F 2 "" H 8775 5475 50  0001 C CNN
F 3 "" H 8775 5475 50  0001 C CNN
	1    8775 5475
	0    1    1    0   
$EndComp
$Comp
L power:GND #PWR0131
U 1 1 5B2B5C07
P 6725 5025
F 0 "#PWR0131" H 6725 4775 50  0001 C CNN
F 1 "GND" H 6730 4852 50  0000 C CNN
F 2 "" H 6725 5025 50  0001 C CNN
F 3 "" H 6725 5025 50  0001 C CNN
	1    6725 5025
	1    0    0    -1  
$EndComp
$Comp
L power:GND #PWR0132
U 1 1 5B2B6145
P 8275 5475
F 0 "#PWR0132" H 8275 5225 50  0001 C CNN
F 1 "GND" V 8280 5347 50  0000 R CNN
F 2 "" H 8275 5475 50  0001 C CNN
F 3 "" H 8275 5475 50  0001 C CNN
	1    8275 5475
	0    1    1    0   
$EndComp
Wire Wire Line
	3575 3700 3575 3625
$Comp
L Device:Crystal_GND24_Small Y1
U 1 1 5B2BC465
P 3275 3575
F 0 "Y1" V 3229 3741 50  0000 L CNN
F 1 "Crystal_GND24_Small" V 3320 3741 50  0000 L CNN
F 2 "Crystal:Crystal_SMD_5032-4Pin_5.0x3.2mm" H 3275 3575 50  0001 C CNN
F 3 "~" H 3275 3575 50  0001 C CNN
	1    3275 3575
	0    1    1    0   
$EndComp
$Comp
L Device:C_Small C4
U 1 1 5B2BC69F
P 3025 3425
F 0 "C4" V 2796 3425 50  0000 C CNN
F 1 "10pF" V 2887 3425 50  0000 C CNN
F 2 "Capacitor_SMD:C_0603_1608Metric" H 3025 3425 50  0001 C CNN
F 3 "~" H 3025 3425 50  0001 C CNN
	1    3025 3425
	0    1    1    0   
$EndComp
$Comp
L Device:C_Small C5
U 1 1 5B2C24A0
P 3025 3700
F 0 "C5" V 2796 3700 50  0000 C CNN
F 1 "10pF" V 2887 3700 50  0000 C CNN
F 2 "Capacitor_SMD:C_0603_1608Metric" H 3025 3700 50  0001 C CNN
F 3 "~" H 3025 3700 50  0001 C CNN
	1    3025 3700
	0    1    1    0   
$EndComp
Wire Wire Line
	3275 3475 3275 3425
Wire Wire Line
	3275 3425 3575 3425
Wire Wire Line
	3575 3425 3575 3525
Wire Wire Line
	3575 3700 3275 3700
Wire Wire Line
	3275 3700 3275 3675
Wire Wire Line
	3125 3700 3275 3700
Connection ~ 3275 3700
Wire Wire Line
	3125 3425 3275 3425
Connection ~ 3275 3425
$Comp
L power:GND #PWR0133
U 1 1 5B2D7DBB
P 2850 3575
F 0 "#PWR0133" H 2850 3325 50  0001 C CNN
F 1 "GND" V 2855 3447 50  0000 R CNN
F 2 "" H 2850 3575 50  0001 C CNN
F 3 "" H 2850 3575 50  0001 C CNN
	1    2850 3575
	0    1    1    0   
$EndComp
Wire Wire Line
	3150 3575 2875 3575
Wire Wire Line
	2925 3425 2875 3425
Wire Wire Line
	2875 3425 2875 3575
Connection ~ 2875 3575
Wire Wire Line
	2875 3575 2850 3575
Wire Wire Line
	2925 3700 2875 3700
Wire Wire Line
	2875 3700 2875 3575
$Comp
L power:GND #PWR0134
U 1 1 5B2E578C
P 3400 3575
F 0 "#PWR0134" H 3400 3325 50  0001 C CNN
F 1 "GND" V 3405 3447 50  0000 R CNN
F 2 "" H 3400 3575 50  0001 C CNN
F 3 "" H 3400 3575 50  0001 C CNN
	1    3400 3575
	0    -1   -1   0   
$EndComp
Wire Notes Line
	2225 600  2225 2450
Wire Notes Line
	2225 2450 5375 2450
Wire Notes Line
	5375 2450 5375 600 
Wire Notes Line
	5375 600  2225 600 
Wire Notes Line
	6525 825  6525 1925
Wire Notes Line
	6525 1925 8200 1925
Wire Notes Line
	8200 1925 8200 825 
Wire Notes Line
	8200 825  6525 825 
Wire Wire Line
	1350 1250 1475 1250
Wire Wire Line
	1475 1400 1475 1250
Connection ~ 1475 1250
Wire Wire Line
	1475 1250 1675 1250
Wire Wire Line
	950  1150 975  1150
Wire Wire Line
	975  1150 975  1125
Connection ~ 2450 1325
Wire Wire Line
	2450 1325 2850 1325
Wire Wire Line
	2350 1325 2450 1325
Wire Wire Line
	2450 950  2450 1025
$Comp
L MCU_ST_STM32:STM32F042K6Tx U3
U 1 1 5B2504BC
P 6775 3725
F 0 "U3" H 6525 2575 50  0000 C CNN
F 1 "STM32F042K6Tx" H 7200 2575 50  0000 C CNN
F 2 "Package_QFP:LQFP-32_7x7mm_P0.8mm" H 9875 4800 50  0001 R TNN
F 3 "http://www.st.com/st-web-ui/static/active/en/resource/technical/document/datasheet/DM00105814.pdf" H 6775 3725 50  0001 C CNN
	1    6775 3725
	1    0    0    -1  
$EndComp
Text GLabel 9975 4525 2    50   Input ~ 0
AN_5V_MEASURE
Text GLabel 3575 4325 0    50   Input ~ 0
PB1
Text GLabel 9925 6000 2    50   Input ~ 0
PB1
$Comp
L Connector:Conn_01x08_Male J8
U 1 1 5B38EBAF
P 9725 5700
F 0 "J8" H 9831 6178 50  0000 C CNN
F 1 "BUTTON_IO" H 9831 6087 50  0000 C CNN
F 2 "Connector_PinHeader_2.54mm:PinHeader_1x08_P2.54mm_Vertical" H 9725 5700 50  0001 C CNN
F 3 "~" H 9725 5700 50  0001 C CNN
	1    9725 5700
	1    0    0    -1  
$EndComp
$Comp
L power:PWR_FLAG #FLG0101
U 1 1 5B38F950
P 1475 1250
F 0 "#FLG0101" H 1475 1325 50  0001 C CNN
F 1 "PWR_FLAG" H 1475 1424 50  0000 C CNN
F 2 "" H 1475 1250 50  0001 C CNN
F 3 "~" H 1475 1250 50  0001 C CNN
	1    1475 1250
	1    0    0    -1  
$EndComp
$Comp
L power:PWR_FLAG #FLG0102
U 1 1 5B38FF2F
P 4775 1425
F 0 "#FLG0102" H 4775 1500 50  0001 C CNN
F 1 "PWR_FLAG" H 4775 1599 50  0000 C CNN
F 2 "" H 4775 1425 50  0001 C CNN
F 3 "~" H 4775 1425 50  0001 C CNN
	1    4775 1425
	1    0    0    -1  
$EndComp
Connection ~ 4775 1425
Wire Wire Line
	4775 1425 4975 1425
$Comp
L power:PWR_FLAG #FLG0103
U 1 1 5B39023D
P 950 1150
F 0 "#FLG0103" H 950 1225 50  0001 C CNN
F 1 "PWR_FLAG" H 950 1324 50  0000 C CNN
F 2 "" H 950 1150 50  0001 C CNN
F 3 "~" H 950 1150 50  0001 C CNN
	1    950  1150
	1    0    0    -1  
$EndComp
Connection ~ 950  1150
NoConn ~ 8650 2225
$Comp
L Device:Battery_Cell BT1
U 1 1 5B394EED
P 1050 3400
F 0 "BT1" H 1168 3496 50  0000 L CNN
F 1 "Battery_Cell" H 1168 3405 50  0000 L CNN
F 2 "Battery:BatteryHolder_Keystone_1058_1x2032" V 1050 3460 50  0001 C CNN
F 3 "~" V 1050 3460 50  0001 C CNN
	1    1050 3400
	1    0    0    -1  
$EndComp
$Comp
L power:GND #PWR0103
U 1 1 5B3A45D8
P 1050 3500
F 0 "#PWR0103" H 1050 3250 50  0001 C CNN
F 1 "GND" H 1055 3327 50  0000 C CNN
F 2 "" H 1050 3500 50  0001 C CNN
F 3 "" H 1050 3500 50  0001 C CNN
	1    1050 3500
	1    0    0    -1  
$EndComp
$Comp
L power:+5V #PWR0135
U 1 1 5B3A87A2
P 1050 3200
F 0 "#PWR0135" H 1050 3050 50  0001 C CNN
F 1 "+5V" H 1065 3373 50  0000 C CNN
F 2 "" H 1050 3200 50  0001 C CNN
F 3 "" H 1050 3200 50  0001 C CNN
	1    1050 3200
	1    0    0    -1  
$EndComp
$Comp
L Mechanical:Mounting_Hole MK1
U 1 1 5B26AD7E
P 900 4450
F 0 "MK1" H 1000 4496 50  0000 L CNN
F 1 "Mounting_Hole" H 1000 4405 50  0000 L CNN
F 2 "MountingHole:MountingHole_2.2mm_M2" H 900 4450 50  0001 C CNN
F 3 "" H 900 4450 50  0001 C CNN
	1    900  4450
	1    0    0    -1  
$EndComp
$Comp
L Mechanical:Mounting_Hole MK2
U 1 1 5B26B4F3
P 900 4750
F 0 "MK2" H 1000 4796 50  0000 L CNN
F 1 "Mounting_Hole" H 1000 4705 50  0000 L CNN
F 2 "MountingHole:MountingHole_2.2mm_M2" H 900 4750 50  0001 C CNN
F 3 "" H 900 4750 50  0001 C CNN
	1    900  4750
	1    0    0    -1  
$EndComp
$Comp
L Device:R R8
U 1 1 5B2D24D7
P 5625 1250
F 0 "R8" H 5695 1296 50  0000 L CNN
F 1 "R" H 5695 1205 50  0000 L CNN
F 2 "Resistor_SMD:R_0603_1608Metric_Pad0.84x1.00mm_HandSolder" V 5555 1250 50  0001 C CNN
F 3 "~" H 5625 1250 50  0001 C CNN
	1    5625 1250
	1    0    0    -1  
$EndComp
$Comp
L Device:R R9
U 1 1 5B2D25CD
P 5625 1750
F 0 "R9" H 5695 1796 50  0000 L CNN
F 1 "R" H 5695 1705 50  0000 L CNN
F 2 "Resistor_SMD:R_0603_1608Metric_Pad0.84x1.00mm_HandSolder" V 5555 1750 50  0001 C CNN
F 3 "~" H 5625 1750 50  0001 C CNN
	1    5625 1750
	1    0    0    -1  
$EndComp
$Comp
L power:+5V #PWR01
U 1 1 5B2E100D
P 5625 1100
F 0 "#PWR01" H 5625 950 50  0001 C CNN
F 1 "+5V" V 5640 1228 50  0000 L CNN
F 2 "" H 5625 1100 50  0001 C CNN
F 3 "" H 5625 1100 50  0001 C CNN
	1    5625 1100
	1    0    0    -1  
$EndComp
$Comp
L power:GND #PWR02
U 1 1 5B2E1153
P 5625 1900
F 0 "#PWR02" H 5625 1650 50  0001 C CNN
F 1 "GND" H 5630 1727 50  0000 C CNN
F 2 "" H 5625 1900 50  0001 C CNN
F 3 "" H 5625 1900 50  0001 C CNN
	1    5625 1900
	1    0    0    -1  
$EndComp
Wire Wire Line
	5625 1400 5625 1500
Text GLabel 5750 1500 2    50   Input ~ 0
AN_5V_MEASURE
Wire Wire Line
	5625 1500 5750 1500
Connection ~ 5625 1500
Wire Wire Line
	5625 1500 5625 1600
Text GLabel 9925 5900 2    50   Input ~ 0
AN_5V_MEASURE
$Comp
L power:+12V #PWR?
U 1 1 5B343932
P 2425 5625
F 0 "#PWR?" H 2425 5475 50  0001 C CNN
F 1 "+12V" H 2440 5798 50  0000 C CNN
F 2 "" H 2425 5625 50  0001 C CNN
F 3 "" H 2425 5625 50  0001 C CNN
	1    2425 5625
	-1   0    0    1   
$EndComp
$Comp
L power:+12V #PWR?
U 1 1 5B343997
P 3500 5625
F 0 "#PWR?" H 3500 5475 50  0001 C CNN
F 1 "+12V" H 3515 5798 50  0000 C CNN
F 2 "" H 3500 5625 50  0001 C CNN
F 3 "" H 3500 5625 50  0001 C CNN
	1    3500 5625
	-1   0    0    1   
$EndComp
$Comp
L power:+12V #PWR?
U 1 1 5B3439FC
P 4725 5625
F 0 "#PWR?" H 4725 5475 50  0001 C CNN
F 1 "+12V" H 4740 5798 50  0000 C CNN
F 2 "" H 4725 5625 50  0001 C CNN
F 3 "" H 4725 5625 50  0001 C CNN
	1    4725 5625
	-1   0    0    1   
$EndComp
$EndSCHEMATC
