M48
;DRILL file {KiCad 5.0.0-rc2-unknown-06ff563~65~ubuntu16.04.1} date Thu Jun 28 18:15:46 2018
;FORMAT={-:-/ absolute / metric / decimal}
FMAT,2
METRIC,TZ
T1C0.400
T2C0.900
T3C1.000
T4C1.520
T5C2.200
%
G90
G05
M71
T1
X80.264Y-99.822
X99.319Y-89.628
X99.544Y-91.757
X100.284Y-87.179
X100.402Y-94.514
X101.6Y-89.916
X102.715Y-98.326
X110.871Y-94.742
X114.427Y-98.171
X115.194Y-96.971
X115.316Y-99.912
X116.126Y-94.76
X116.76Y-90.074
X117.035Y-94.343
X117.142Y-93.347
X117.587Y-98.896
X118.733Y-92.015
X119.065Y-93.402
X119.085Y-95.759
X119.088Y-98.896
X119.855Y-98.254
X120.223Y-92.462
X120.523Y-99.822
X120.653Y-89.715
X121.412Y-86.233
X121.455Y-90.312
X121.666Y-101.727
X122.25Y-91.772
X122.391Y-94.265
X122.573Y-93.222
X124.756Y-91.702
X124.878Y-93.837
X124.968Y-92.837
X125.018Y-90.737
X125.443Y-89.832
X126.2Y-87.889
T2
X76.835Y-99.187
X77.334Y-88.002
X83.058Y-85.217
X85.344Y-90.678
X89.507Y-90.942
X93.164Y-84.401
X95.885Y-87.376
X96.266Y-93.472
X96.774Y-101.205
X98.538Y-101.267
X98.806Y-98.806
X101.452Y-96.152
X101.6Y-93.345
X106.045Y-97.536
X106.68Y-101.387
X109.601Y-101.346
X111.379Y-84.963
X111.379Y-97.409
X111.759Y-93.174
X112.014Y-90.805
X114.046Y-84.582
X119.524Y-101.346
X123.19Y-85.598
X123.825Y-96.774
X127.127Y-97.536
T3
X125.73Y-104.775
X128.27Y-104.775
X130.81Y-104.775
X133.35Y-104.775
X123.19Y-100.203
X125.73Y-100.203
X128.27Y-100.203
X130.81Y-100.203
X133.35Y-100.203
X128.524Y-86.995
X128.524Y-89.535
X128.524Y-92.075
X128.524Y-94.615
X131.064Y-86.995
X131.064Y-89.535
X131.064Y-92.075
X131.064Y-94.615
X102.87Y-104.775
X105.41Y-104.775
X107.95Y-104.775
X110.49Y-104.775
X113.03Y-104.775
X115.57Y-104.775
X118.11Y-104.775
X120.65Y-104.775
T4
X116.205Y-79.375
X121.285Y-79.375
X104.775Y-79.375
X109.855Y-79.375
X78.105Y-79.375
X83.185Y-79.375
X127.635Y-79.375
X132.715Y-79.375
X93.345Y-79.375
X98.425Y-79.375
T5
X78.232Y-104.14
X97.79Y-104.14
T0
M30
