%TF.GenerationSoftware,KiCad,Pcbnew,5.0.0-rc2-unknown-06ff563~65~ubuntu16.04.1*%
%TF.CreationDate,2018-06-28T18:15:46+02:00*%
%TF.ProjectId,coolboard2,636F6F6C626F617264322E6B69636164,rev?*%
%TF.SameCoordinates,Original*%
%TF.FileFunction,Copper,L1,Top,Signal*%
%TF.FilePolarity,Positive*%
%FSLAX46Y46*%
G04 Gerber Fmt 4.6, Leading zero omitted, Abs format (unit mm)*
G04 Created by KiCad (PCBNEW 5.0.0-rc2-unknown-06ff563~65~ubuntu16.04.1) date Thu Jun 28 18:15:46 2018*
%MOMM*%
%LPD*%
G01*
G04 APERTURE LIST*
%ADD10R,1.550000X0.600000*%
%ADD11R,1.070000X1.800000*%
%ADD12R,0.845000X1.000000*%
%ADD13O,1.700000X1.700000*%
%ADD14R,1.700000X1.700000*%
%ADD15R,1.300000X1.600000*%
%ADD16R,0.670000X1.000000*%
%ADD17R,1.000000X0.670000*%
%ADD18R,1.000000X0.845000*%
%ADD19R,1.600000X2.200000*%
%ADD20R,0.600000X1.200000*%
%ADD21R,1.200000X0.600000*%
%ADD22C,3.000000*%
%ADD23R,3.000000X3.000000*%
%ADD24R,0.450000X1.450000*%
%ADD25R,0.900000X0.800000*%
%ADD26C,0.800000*%
%ADD27C,1.200000*%
%ADD28C,0.800000*%
%ADD29C,0.250000*%
%ADD30C,0.400000*%
%ADD31C,0.500000*%
%ADD32C,0.350000*%
G04 APERTURE END LIST*
D10*
X103665000Y-85725000D03*
X103665000Y-86995000D03*
X103665000Y-88265000D03*
X103665000Y-89535000D03*
X98265000Y-89535000D03*
X98265000Y-88265000D03*
X98265000Y-86995000D03*
X98265000Y-85725000D03*
D11*
X86887000Y-78232000D03*
X89897000Y-78232000D03*
D12*
X117421500Y-101346000D03*
X115496500Y-101346000D03*
X112194500Y-101346000D03*
X114119500Y-101346000D03*
D13*
X120650000Y-104775000D03*
X118110000Y-104775000D03*
X115570000Y-104775000D03*
X113030000Y-104775000D03*
X110490000Y-104775000D03*
X107950000Y-104775000D03*
X105410000Y-104775000D03*
D14*
X102870000Y-104775000D03*
D15*
X109585000Y-90425000D03*
X109585000Y-93725000D03*
X107585000Y-93725000D03*
X107585000Y-90425000D03*
D16*
X109587000Y-88138000D03*
X107837000Y-88138000D03*
X107710000Y-96012000D03*
X109460000Y-96012000D03*
D17*
X82169000Y-96661000D03*
X82169000Y-98411000D03*
D16*
X96760000Y-99695000D03*
X95010000Y-99695000D03*
X95490000Y-97155000D03*
X93740000Y-97155000D03*
D17*
X100965000Y-99455000D03*
X100965000Y-101205000D03*
D12*
X79067500Y-89535000D03*
X77142500Y-89535000D03*
D18*
X125476000Y-97736500D03*
X125476000Y-95811500D03*
X112649000Y-94942500D03*
X112649000Y-93017500D03*
X112776000Y-87683500D03*
X112776000Y-89608500D03*
D12*
X108277500Y-99695000D03*
X106352500Y-99695000D03*
X79047500Y-91440000D03*
X77122500Y-91440000D03*
D18*
X76708000Y-95049500D03*
X76708000Y-96974500D03*
X91186000Y-89842500D03*
X91186000Y-91767500D03*
D12*
X120342500Y-85598000D03*
X118417500Y-85598000D03*
D18*
X87630000Y-89715500D03*
X87630000Y-91640500D03*
D19*
X85573000Y-97155000D03*
X91973000Y-97155000D03*
D12*
X89227500Y-81788000D03*
X87302500Y-81788000D03*
D13*
X125730000Y-104775000D03*
X128270000Y-104775000D03*
X130810000Y-104775000D03*
D14*
X133350000Y-104775000D03*
D20*
X116580000Y-88460000D03*
X117380000Y-88460000D03*
X118180000Y-88460000D03*
X118980000Y-88460000D03*
X119780000Y-88460000D03*
X120580000Y-88460000D03*
X121380000Y-88460000D03*
X122180000Y-88460000D03*
D21*
X123630000Y-89910000D03*
X123630000Y-90710000D03*
X123630000Y-91510000D03*
X123630000Y-92310000D03*
X123630000Y-93110000D03*
X123630000Y-93910000D03*
X123630000Y-94710000D03*
X123630000Y-95510000D03*
D20*
X122180000Y-96960000D03*
X121380000Y-96960000D03*
X120580000Y-96960000D03*
X119780000Y-96960000D03*
X118980000Y-96960000D03*
X118180000Y-96960000D03*
X117380000Y-96960000D03*
X116580000Y-96960000D03*
D21*
X115130000Y-95510000D03*
X115130000Y-94710000D03*
X115130000Y-93910000D03*
X115130000Y-93110000D03*
X115130000Y-92310000D03*
X115130000Y-91510000D03*
X115130000Y-90710000D03*
X115130000Y-89910000D03*
D13*
X131064000Y-94615000D03*
X128524000Y-94615000D03*
X131064000Y-92075000D03*
X128524000Y-92075000D03*
X131064000Y-89535000D03*
X128524000Y-89535000D03*
X131064000Y-86995000D03*
D14*
X128524000Y-86995000D03*
D12*
X115242500Y-85598000D03*
X117167500Y-85598000D03*
X87937500Y-87122000D03*
X89862500Y-87122000D03*
X91239500Y-87122000D03*
X93164500Y-87122000D03*
D13*
X123190000Y-100203000D03*
X125730000Y-100203000D03*
X128270000Y-100203000D03*
X130810000Y-100203000D03*
D14*
X133350000Y-100203000D03*
D22*
X132715000Y-79375000D03*
D23*
X127635000Y-79375000D03*
D22*
X121285000Y-79375000D03*
D23*
X116205000Y-79375000D03*
D22*
X109855000Y-79375000D03*
D23*
X104775000Y-79375000D03*
D22*
X98425000Y-79375000D03*
D23*
X93345000Y-79375000D03*
D24*
X80350000Y-98085000D03*
X79700000Y-98085000D03*
X79050000Y-98085000D03*
X78400000Y-98085000D03*
X78400000Y-93685000D03*
X79050000Y-93685000D03*
X79700000Y-93685000D03*
X80350000Y-93685000D03*
D10*
X103665000Y-92710000D03*
X103665000Y-93980000D03*
X103665000Y-95250000D03*
X103665000Y-96520000D03*
X98265000Y-96520000D03*
X98265000Y-95250000D03*
X98265000Y-93980000D03*
X98265000Y-92710000D03*
D25*
X102505000Y-100965000D03*
X104505000Y-100015000D03*
X104505000Y-101915000D03*
X78629000Y-85979000D03*
X80629000Y-85029000D03*
X80629000Y-86929000D03*
D22*
X83185000Y-79375000D03*
D23*
X78105000Y-79375000D03*
D26*
X120652817Y-89715222D03*
X115194109Y-96970617D03*
X121454990Y-90312333D03*
X115316000Y-99912010D03*
X99318978Y-89628070D03*
X124877990Y-93836984D03*
X100401709Y-94513594D03*
X124967988Y-92837000D03*
X124755822Y-91701677D03*
X125018258Y-90736715D03*
X125443438Y-89831592D03*
X126199990Y-87888660D03*
X121412000Y-86233000D03*
X122249522Y-91771551D03*
X99544245Y-91756816D03*
X117035427Y-94342870D03*
X117586552Y-98896010D03*
X102714988Y-98326012D03*
X114427000Y-98171000D03*
X116126355Y-94759537D03*
X122391010Y-94264957D03*
X120223474Y-92461832D03*
X122572693Y-93221562D03*
X119065397Y-93402077D03*
X121665999Y-101726999D03*
X80264000Y-99822000D03*
D27*
X98806000Y-98806000D03*
X96266000Y-93472000D03*
X95885000Y-87376000D03*
X77334010Y-88002000D03*
X76835000Y-99187000D03*
X85344000Y-90678000D03*
X111379000Y-97409000D03*
X109601002Y-101346000D03*
X119524485Y-101346000D03*
X127127000Y-97536004D03*
X111379000Y-84963000D03*
X123190008Y-85598000D03*
X96774000Y-101205000D03*
X89506798Y-90942076D03*
X98538093Y-101266598D03*
X106045000Y-97535996D03*
X93164500Y-84401500D03*
X83057994Y-85217000D03*
D26*
X100284011Y-87179486D03*
X119854990Y-98254016D03*
X117141885Y-93346778D03*
X116760243Y-90073810D03*
D27*
X106680000Y-101386990D03*
X123825000Y-96774000D03*
X114046000Y-84581998D03*
X111759497Y-93174033D03*
X112014000Y-90805000D03*
D26*
X101600006Y-89916000D03*
X110871000Y-94742000D03*
X118732515Y-92015134D03*
X120523000Y-99822000D03*
X119088462Y-98896245D03*
X119085475Y-95759085D03*
D27*
X101451719Y-96151597D03*
X101600000Y-93345000D03*
D28*
X78105000Y-79375000D02*
X78105000Y-81675000D01*
X78502000Y-82072000D02*
X78502000Y-85598000D01*
X78105000Y-81675000D02*
X78502000Y-82072000D01*
D29*
X116931330Y-95510000D02*
X118310521Y-94130809D01*
X115130000Y-95510000D02*
X116931330Y-95510000D01*
X119437347Y-92184991D02*
X120252818Y-91369520D01*
X119790398Y-93054076D02*
X119437347Y-92701025D01*
X120252818Y-91369520D02*
X120252818Y-90115221D01*
X119437347Y-92701025D02*
X119437347Y-92184991D01*
X120252818Y-90115221D02*
X120652817Y-89715222D01*
X119409667Y-94130809D02*
X119790398Y-93750078D01*
X119790398Y-93750078D02*
X119790398Y-93054076D01*
X118310521Y-94130809D02*
X119409667Y-94130809D01*
X115204726Y-96960000D02*
X115194109Y-96970617D01*
X116580000Y-96960000D02*
X115204726Y-96960000D01*
X120948476Y-90818847D02*
X121054991Y-90712332D01*
X121054991Y-90712332D02*
X121454990Y-90312333D01*
X120948476Y-92809834D02*
X120948476Y-90818847D01*
X120690420Y-93067890D02*
X120948476Y-92809834D01*
X120690420Y-94122878D02*
X120690420Y-93067890D01*
X119779223Y-95034075D02*
X120690420Y-94122878D01*
X118680077Y-95034075D02*
X119779223Y-95034075D01*
X117380000Y-96334152D02*
X118680077Y-95034075D01*
X117380000Y-96960000D02*
X117380000Y-96334152D01*
X116241996Y-99912010D02*
X115316000Y-99912010D01*
X116332000Y-99822006D02*
X116241996Y-99912010D01*
X119344639Y-99927359D02*
X118908124Y-99927359D01*
X120580000Y-96960000D02*
X120580000Y-98691998D01*
X118764461Y-100071022D02*
X116581016Y-100071022D01*
X118908124Y-99927359D02*
X118764461Y-100071022D01*
X120580000Y-98691998D02*
X119344639Y-99927359D01*
X116581016Y-100071022D02*
X116332000Y-99822006D01*
X99318978Y-89563978D02*
X99318978Y-89628070D01*
X98265000Y-89535000D02*
X99290000Y-89535000D01*
X99290000Y-89535000D02*
X99318978Y-89563978D01*
X123630000Y-94710000D02*
X124480000Y-94710000D01*
X124480000Y-94710000D02*
X124877990Y-94312010D01*
X124877990Y-94312010D02*
X124877990Y-93836984D01*
X98740000Y-96520000D02*
X100401709Y-94858291D01*
X100401709Y-94858291D02*
X100401709Y-94513594D01*
X98265000Y-96520000D02*
X98740000Y-96520000D01*
X124567989Y-92437001D02*
X124967988Y-92837000D01*
X123757001Y-92437001D02*
X124567989Y-92437001D01*
X123630000Y-92310000D02*
X123757001Y-92437001D01*
X124564145Y-91510000D02*
X124755822Y-91701677D01*
X123630000Y-91510000D02*
X124564145Y-91510000D01*
X123630000Y-90710000D02*
X124991543Y-90710000D01*
X124991543Y-90710000D02*
X125018258Y-90736715D01*
X123630000Y-89910000D02*
X125365030Y-89910000D01*
X125365030Y-89910000D02*
X125443438Y-89831592D01*
X128778000Y-92075000D02*
X129032000Y-92075000D01*
X124111012Y-87408012D02*
X126676989Y-89973989D01*
X121380000Y-88460000D02*
X121380000Y-87720412D01*
X121692400Y-87408012D02*
X124111012Y-87408012D01*
X126676989Y-91430070D02*
X127321919Y-92075000D01*
X121380000Y-87720412D02*
X121692400Y-87408012D01*
X127321919Y-92075000D02*
X128524000Y-92075000D01*
X126676989Y-89973989D02*
X126676989Y-91430070D01*
X127545998Y-85598000D02*
X131699000Y-85598000D01*
X131699000Y-85598000D02*
X132461000Y-86360000D01*
X120580000Y-87884002D02*
X121506001Y-86958001D01*
X129373999Y-93765001D02*
X128524000Y-94615000D01*
X126185997Y-86958001D02*
X127545998Y-85598000D01*
X132461000Y-93345000D02*
X129794000Y-93345000D01*
X121506001Y-86958001D02*
X126185997Y-86958001D01*
X120580000Y-88460000D02*
X120580000Y-87884002D01*
X132461000Y-86360000D02*
X132461000Y-93345000D01*
X129794000Y-93345000D02*
X129373999Y-93765001D01*
X126199990Y-88454345D02*
X126199990Y-87888660D01*
X127127000Y-90805000D02*
X127127000Y-89381355D01*
X127127000Y-89381355D02*
X126199990Y-88454345D01*
X129794000Y-90805000D02*
X131064000Y-92075000D01*
X127127000Y-90805000D02*
X129794000Y-90805000D01*
X120884001Y-86505999D02*
X121139001Y-86505999D01*
X119780000Y-87610000D02*
X120884001Y-86505999D01*
X119780000Y-88460000D02*
X119780000Y-87610000D01*
X121139001Y-86505999D02*
X121412000Y-86233000D01*
X121651045Y-94435075D02*
X121651045Y-93380087D01*
X121848498Y-93182634D02*
X121848498Y-92172575D01*
X121848498Y-92172575D02*
X122249522Y-91771551D01*
X121380000Y-96960000D02*
X121380000Y-94706120D01*
X121380000Y-94706120D02*
X121651045Y-94435075D01*
X121651045Y-93380087D02*
X121848498Y-93182634D01*
X99544245Y-93213118D02*
X99544245Y-91756816D01*
X98777363Y-93980000D02*
X99544245Y-93213118D01*
X97790000Y-93980000D02*
X98777363Y-93980000D01*
X116416883Y-93724326D02*
X117035427Y-94342870D01*
X115980000Y-92310000D02*
X116416883Y-92746883D01*
X116416883Y-92746883D02*
X116416883Y-93724326D01*
X115130000Y-92310000D02*
X115980000Y-92310000D01*
X118980000Y-97810000D02*
X117893990Y-98896010D01*
X118980000Y-96960000D02*
X118980000Y-97810000D01*
X117893990Y-98896010D02*
X117586552Y-98896010D01*
X92852194Y-89371104D02*
X92852194Y-92979194D01*
X97663000Y-97790000D02*
X102178976Y-97790000D01*
X91805491Y-88324401D02*
X92852194Y-89371104D01*
X92852194Y-92979194D02*
X97663000Y-97790000D01*
X87302500Y-81776000D02*
X88900000Y-83373500D01*
X88959401Y-88324401D02*
X91805491Y-88324401D01*
X88900000Y-83373500D02*
X88900000Y-88265000D01*
X102178976Y-97790000D02*
X102714988Y-98326012D01*
X88900000Y-88265000D02*
X88959401Y-88324401D01*
X117819000Y-98171000D02*
X114427000Y-98171000D01*
X118180000Y-97810000D02*
X117819000Y-98171000D01*
X118180000Y-96960000D02*
X118180000Y-97810000D01*
X116076818Y-94710000D02*
X116126355Y-94759537D01*
X115130000Y-94710000D02*
X116076818Y-94710000D01*
X122558294Y-94264957D02*
X122391010Y-94264957D01*
X122913251Y-93910000D02*
X122558294Y-94264957D01*
X123630000Y-93910000D02*
X122913251Y-93910000D01*
X115769396Y-96245615D02*
X116031959Y-95983052D01*
X116031959Y-95983052D02*
X117094689Y-95983052D01*
X105410000Y-104775000D02*
X106828998Y-103356002D01*
X120240409Y-93936478D02*
X120240409Y-92478767D01*
X114771383Y-96245615D02*
X115769396Y-96245615D01*
X113157000Y-97859998D02*
X114771383Y-96245615D01*
X117094689Y-95983052D02*
X118493677Y-94584064D01*
X113157000Y-102362000D02*
X113157000Y-97859998D01*
X112162998Y-103356002D02*
X113157000Y-102362000D01*
X118493677Y-94584064D02*
X119592823Y-94584064D01*
X106828998Y-103356002D02*
X112162998Y-103356002D01*
X119592823Y-94584064D02*
X120240409Y-93936478D01*
X120240409Y-92478767D02*
X120223474Y-92461832D01*
X123630000Y-93110000D02*
X122684255Y-93110000D01*
X122684255Y-93110000D02*
X122572693Y-93221562D01*
X118007513Y-92344193D02*
X119065397Y-93402077D01*
X118007513Y-89482487D02*
X118007513Y-92344193D01*
X118180000Y-89310000D02*
X118007513Y-89482487D01*
X118180000Y-88460000D02*
X118180000Y-89310000D01*
X121665999Y-103759001D02*
X121665999Y-101726999D01*
X120650000Y-104775000D02*
X121665999Y-103759001D01*
D28*
X77142500Y-91420000D02*
X77122500Y-91440000D01*
X77142500Y-89535000D02*
X77142500Y-91420000D01*
X86917500Y-89842500D02*
X86995000Y-89842500D01*
X86306500Y-89715500D02*
X85852000Y-90170000D01*
X87630000Y-89715500D02*
X86306500Y-89715500D01*
X77142500Y-89535000D02*
X77142500Y-87810490D01*
X79252000Y-88002000D02*
X77334010Y-88002000D01*
X80502000Y-86802000D02*
X80452000Y-86802000D01*
X80452000Y-86802000D02*
X79252000Y-88002000D01*
D29*
X80350000Y-98085000D02*
X80350000Y-99736000D01*
X80350000Y-99736000D02*
X80264000Y-99822000D01*
D28*
X110041500Y-87683500D02*
X109460000Y-88265000D01*
X120342500Y-85598000D02*
X120342500Y-85675500D01*
X111252000Y-87683500D02*
X110041500Y-87683500D01*
X109460000Y-90300000D02*
X109585000Y-90425000D01*
X109460000Y-88265000D02*
X109460000Y-90300000D01*
D30*
X111252000Y-87683500D02*
X112776000Y-87683500D01*
D28*
X104505000Y-103140000D02*
X102870000Y-104775000D01*
X104505000Y-101915000D02*
X104505000Y-103140000D01*
X96760000Y-98425000D02*
X95490000Y-97155000D01*
X96760000Y-99695000D02*
X96760000Y-98425000D01*
X87630000Y-87429500D02*
X87937500Y-87122000D01*
X87630000Y-89715500D02*
X87630000Y-87429500D01*
X107585000Y-93725000D02*
X107585000Y-95760000D01*
X100965000Y-99455000D02*
X98260859Y-99455000D01*
X98260859Y-99455000D02*
X98156882Y-99351023D01*
X98156882Y-99433118D02*
X98156882Y-99351023D01*
X97895000Y-99695000D02*
X98156882Y-99433118D01*
X96760000Y-99695000D02*
X97895000Y-99695000D01*
X76708000Y-99060000D02*
X76835000Y-99187000D01*
D29*
X76835000Y-99175000D02*
X76835000Y-99187000D01*
D28*
X76708000Y-96974500D02*
X76708000Y-99060000D01*
X77834999Y-98187001D02*
X78174999Y-98187001D01*
X76835000Y-99187000D02*
X77834999Y-98187001D01*
X85617000Y-79375000D02*
X86760000Y-78232000D01*
X83185000Y-79375000D02*
X85617000Y-79375000D01*
X112529882Y-94942500D02*
X112529882Y-96258118D01*
X112529882Y-96258118D02*
X111379000Y-97409000D01*
X108942000Y-97409000D02*
X111379000Y-97409000D01*
X107710000Y-96177000D02*
X108942000Y-97409000D01*
X107710000Y-96012000D02*
X107710000Y-96177000D01*
X108277500Y-99695000D02*
X108277500Y-99772500D01*
X108277500Y-99772500D02*
X109601002Y-101096002D01*
D31*
X123063000Y-97917000D02*
X122230001Y-97084001D01*
X124660500Y-97917000D02*
X123063000Y-97917000D01*
X122230001Y-97084001D02*
X122230001Y-96960000D01*
X125095000Y-97482500D02*
X124660500Y-97917000D01*
D28*
X125712787Y-97536004D02*
X127127000Y-97536004D01*
X125095000Y-97482500D02*
X125148504Y-97536004D01*
X125148504Y-97536004D02*
X125712787Y-97536004D01*
X117421500Y-101346000D02*
X119524485Y-101346000D01*
X119524485Y-101346000D02*
X119568125Y-101302360D01*
X97199998Y-95250000D02*
X96266000Y-94316002D01*
X98265000Y-95250000D02*
X97199998Y-95250000D01*
X96520000Y-92710000D02*
X98265000Y-92710000D01*
X96266000Y-92964000D02*
X96520000Y-92710000D01*
X96690000Y-88265000D02*
X98265000Y-88265000D01*
X96266000Y-87841000D02*
X96690000Y-88265000D01*
X96690000Y-85725000D02*
X95885000Y-86530000D01*
X96690000Y-88265000D02*
X95885000Y-87460000D01*
X95885000Y-87460000D02*
X95885000Y-87376000D01*
X95885000Y-86530000D02*
X95885000Y-87376000D01*
X96266000Y-93472000D02*
X96012000Y-93472000D01*
X98265000Y-85725000D02*
X96690000Y-85725000D01*
D30*
X112776000Y-88506000D02*
X112964023Y-88694023D01*
X112964023Y-88694023D02*
X116209977Y-88694023D01*
X112776000Y-87683500D02*
X112776000Y-88506000D01*
X116209977Y-88694023D02*
X116512000Y-88392000D01*
D28*
X97917000Y-99695000D02*
X98806000Y-98806000D01*
X97895000Y-99695000D02*
X97917000Y-99695000D01*
X96266000Y-93599000D02*
X96266000Y-93472000D01*
X96266000Y-94316002D02*
X96266000Y-93599000D01*
X96266000Y-93599000D02*
X96266000Y-92964000D01*
X85852000Y-90170000D02*
X85344000Y-90678000D01*
X109601002Y-101096002D02*
X109601002Y-101346000D01*
X111379000Y-85811528D02*
X111379000Y-84963000D01*
X111252000Y-87683500D02*
X111379000Y-87556500D01*
X111379000Y-87556500D02*
X111379000Y-85811528D01*
X122682008Y-85090000D02*
X123190008Y-85598000D01*
X120850500Y-85090000D02*
X122682008Y-85090000D01*
X120342500Y-85598000D02*
X120850500Y-85090000D01*
D30*
X93740000Y-97155000D02*
X91973000Y-97155000D01*
X93740000Y-98425000D02*
X95010000Y-99695000D01*
X93740000Y-97155000D02*
X93740000Y-98425000D01*
X95010000Y-99860000D02*
X96355000Y-101205000D01*
X95010000Y-99695000D02*
X95010000Y-99860000D01*
X101205000Y-100965000D02*
X100965000Y-101205000D01*
X102505000Y-100965000D02*
X101205000Y-100965000D01*
X96355000Y-101205000D02*
X96774000Y-101205000D01*
X91108500Y-91767500D02*
X90283076Y-90942076D01*
X90283076Y-90942076D02*
X89506798Y-90942076D01*
X91186000Y-91767500D02*
X91108500Y-91767500D01*
X100965000Y-101205000D02*
X98599691Y-101205000D01*
X96774000Y-101205000D02*
X98476495Y-101205000D01*
X98599691Y-101205000D02*
X98538093Y-101266598D01*
X98476495Y-101205000D02*
X98538093Y-101266598D01*
X91973000Y-92481000D02*
X91973000Y-97155000D01*
X91186000Y-91694000D02*
X91973000Y-92481000D01*
X105134004Y-97535996D02*
X106045000Y-97535996D01*
X102505000Y-100965000D02*
X102505000Y-100165000D01*
X102505000Y-100165000D02*
X105134004Y-97535996D01*
X112141000Y-101346000D02*
X112194500Y-101346000D01*
X106045000Y-97535996D02*
X106768015Y-98259011D01*
X106768015Y-98259011D02*
X108920011Y-98259011D01*
X108920011Y-98259011D02*
X112007000Y-101346000D01*
X112007000Y-101346000D02*
X112141000Y-101346000D01*
D28*
X79047500Y-89555000D02*
X79067500Y-89535000D01*
X79047500Y-91440000D02*
X79047500Y-89555000D01*
X79047500Y-91517500D02*
X78740000Y-91825000D01*
X79047500Y-91440000D02*
X79047500Y-91517500D01*
X78400000Y-92087500D02*
X78400000Y-93685000D01*
X79047500Y-91440000D02*
X78400000Y-92087500D01*
X78400000Y-93685000D02*
X78774999Y-93685000D01*
X93164500Y-79555500D02*
X93345000Y-79375000D01*
X79067500Y-89535000D02*
X80290000Y-89535000D01*
X80944008Y-85090008D02*
X81071000Y-85217000D01*
X80290000Y-89535000D02*
X83057994Y-86767006D01*
X81071000Y-85217000D02*
X83057994Y-85217000D01*
X93164500Y-84401500D02*
X93091000Y-84328000D01*
X93164500Y-87122000D02*
X93164500Y-84401500D01*
X83057994Y-86767006D02*
X83057994Y-85217000D01*
D29*
X98265000Y-86995000D02*
X100099525Y-86995000D01*
X100099525Y-86995000D02*
X100284011Y-87179486D01*
X119780000Y-98179026D02*
X119854990Y-98254016D01*
X119780000Y-96960000D02*
X119780000Y-98179026D01*
X117141885Y-90455452D02*
X116760243Y-90073810D01*
X117141885Y-93346778D02*
X117141885Y-90455452D01*
X89227500Y-89842500D02*
X87630000Y-91440000D01*
X91186000Y-89842500D02*
X89227500Y-89842500D01*
X86880000Y-91640500D02*
X87630000Y-91640500D01*
X80350000Y-93685000D02*
X80350000Y-93185000D01*
X80350000Y-93185000D02*
X81587000Y-91948000D01*
X81587000Y-91948000D02*
X86572500Y-91948000D01*
X86572500Y-91948000D02*
X86880000Y-91640500D01*
D30*
X117380000Y-85810500D02*
X117167500Y-85598000D01*
X117380000Y-88460000D02*
X117380000Y-85810500D01*
X118417500Y-85598000D02*
X117167500Y-85598000D01*
X106032500Y-100015000D02*
X106352500Y-99695000D01*
X104505000Y-100015000D02*
X106032500Y-100015000D01*
D31*
X123630000Y-95510000D02*
X124206000Y-95510000D01*
D30*
X106352500Y-99695000D02*
X106352500Y-101059490D01*
X106352500Y-101059490D02*
X106680000Y-101386990D01*
X112741500Y-93110000D02*
X115130000Y-93110000D01*
X112649000Y-93017500D02*
X112741500Y-93110000D01*
X112827234Y-93110000D02*
X112716235Y-92999001D01*
X112716235Y-92999001D02*
X112613999Y-92999001D01*
X113122500Y-93110000D02*
X113011501Y-92999001D01*
X113011501Y-92999001D02*
X112613999Y-92999001D01*
X114828500Y-89608500D02*
X115130000Y-89910000D01*
X112776000Y-89608500D02*
X114828500Y-89608500D01*
X112613999Y-92999001D02*
X112613999Y-92842481D01*
X112481528Y-92710010D02*
X111633000Y-92710010D01*
X112613999Y-92842481D02*
X112481528Y-92710010D01*
D31*
X125422500Y-95758000D02*
X125476000Y-95811500D01*
X123878000Y-95758000D02*
X125422500Y-95758000D01*
X123630000Y-95510000D02*
X123878000Y-95758000D01*
D30*
X124787500Y-95811500D02*
X123825000Y-96774000D01*
X125476000Y-95811500D02*
X124787500Y-95811500D01*
X114303998Y-84581998D02*
X114046000Y-84581998D01*
X115242500Y-85598000D02*
X115242500Y-85520500D01*
X115242500Y-85520500D02*
X114303998Y-84581998D01*
X112613999Y-90205001D02*
X112014000Y-90805000D01*
X113030000Y-89608500D02*
X113030000Y-89789000D01*
X113030000Y-89789000D02*
X112613999Y-90205001D01*
D29*
X89862500Y-87122000D02*
X91239500Y-87122000D01*
X91239500Y-87122000D02*
X91239500Y-87199500D01*
X91239500Y-87199500D02*
X91912000Y-87872000D01*
X101200007Y-90315999D02*
X101600006Y-89916000D01*
X91989500Y-87872000D02*
X94560499Y-90442999D01*
X101073007Y-90442999D02*
X101200007Y-90315999D01*
X91912000Y-87872000D02*
X91989500Y-87872000D01*
X94560499Y-90442999D02*
X101073007Y-90442999D01*
X112344506Y-93910000D02*
X112147506Y-94107000D01*
X111506000Y-94107000D02*
X111270999Y-94342001D01*
X112147506Y-94107000D02*
X111506000Y-94107000D01*
X115130000Y-93910000D02*
X112344506Y-93910000D01*
X111270999Y-94342001D02*
X110871000Y-94742000D01*
X89770000Y-80102500D02*
X89227500Y-80645000D01*
X89227500Y-80645000D02*
X89227500Y-81534000D01*
X89770000Y-80102500D02*
X89770000Y-78232000D01*
X79700000Y-95052000D02*
X79700000Y-93685000D01*
X79697500Y-95049500D02*
X76708000Y-95049500D01*
X79700000Y-95052000D02*
X79697500Y-95049500D01*
X79565002Y-100647002D02*
X79050000Y-100132000D01*
X79050000Y-100132000D02*
X79050000Y-98085000D01*
X80898998Y-100647002D02*
X79565002Y-100647002D01*
D30*
X85090000Y-97155000D02*
X85573000Y-97155000D01*
X83834000Y-98411000D02*
X85090000Y-97155000D01*
X82550000Y-98411000D02*
X83834000Y-98411000D01*
X82169000Y-99377000D02*
X82169000Y-98411000D01*
X80898998Y-100647002D02*
X82169000Y-99377000D01*
D29*
X79700000Y-97110000D02*
X80066818Y-96743182D01*
X82550000Y-96661000D02*
X80518000Y-96743182D01*
X80066818Y-96743182D02*
X80518000Y-96743182D01*
X79700000Y-97110000D02*
X79700000Y-98085000D01*
X107710000Y-90300000D02*
X107585000Y-90425000D01*
X107710000Y-88265000D02*
X107710000Y-90300000D01*
X107585000Y-90425000D02*
X107585000Y-90575000D01*
X112458001Y-91730001D02*
X113478002Y-90710000D01*
X113478002Y-90710000D02*
X114280000Y-90710000D01*
X107585000Y-90575000D02*
X108740001Y-91730001D01*
X108740001Y-91730001D02*
X112458001Y-91730001D01*
X114280000Y-90710000D02*
X115130000Y-90710000D01*
X109585000Y-95760000D02*
X109460000Y-95885000D01*
X109585000Y-93725000D02*
X109585000Y-95760000D01*
X110979988Y-92180012D02*
X109585000Y-93575000D01*
X109585000Y-93575000D02*
X109585000Y-93725000D01*
X112644401Y-92180012D02*
X110979988Y-92180012D01*
X113314413Y-91510000D02*
X112644401Y-92180012D01*
X115130000Y-91510000D02*
X113314413Y-91510000D01*
X118980000Y-88460000D02*
X118980000Y-91767649D01*
X118980000Y-91767649D02*
X118732515Y-92015134D01*
X121067998Y-101251998D02*
X120940998Y-101378998D01*
X120940998Y-101378998D02*
X120940998Y-101944002D01*
X120940998Y-101944002D02*
X118959999Y-103925001D01*
X120523000Y-99822000D02*
X121067998Y-100366998D01*
X118959999Y-103925001D02*
X118110000Y-104775000D01*
X121067998Y-100366998D02*
X121067998Y-101251998D01*
X115496500Y-101346000D02*
X114119500Y-101346000D01*
X116804540Y-99187000D02*
X117238551Y-99621011D01*
X114369998Y-99187000D02*
X116804540Y-99187000D01*
X117238551Y-99621011D02*
X118363696Y-99621011D01*
X114119500Y-103324500D02*
X114119500Y-99437498D01*
X114119500Y-99437498D02*
X114369998Y-99187000D01*
X118363696Y-99621011D02*
X119088462Y-98896245D01*
X115570000Y-104775000D02*
X114119500Y-103324500D01*
X119690624Y-95759085D02*
X119085475Y-95759085D01*
X121901520Y-91046549D02*
X121398487Y-91549582D01*
X122180000Y-88460000D02*
X122180000Y-90938851D01*
X121140431Y-93254290D02*
X121140431Y-94309278D01*
X121140431Y-94309278D02*
X119690624Y-95759085D01*
X121398487Y-92996234D02*
X121140431Y-93254290D01*
X121398487Y-91549582D02*
X121398487Y-92996234D01*
X122072302Y-91046549D02*
X122180000Y-90938851D01*
X121901520Y-91046549D02*
X122072302Y-91046549D01*
D28*
X103665000Y-96520000D02*
X101820122Y-96520000D01*
X103665000Y-95250000D02*
X102090000Y-95250000D01*
X101820122Y-96520000D02*
X101451719Y-96151597D01*
X102090000Y-95250000D02*
X101451719Y-95888281D01*
X101451719Y-95888281D02*
X101451719Y-96151597D01*
X103665000Y-88265000D02*
X103665000Y-88900000D01*
X105248989Y-83981011D02*
X109855000Y-79375000D01*
X104052062Y-88900000D02*
X105248989Y-87703073D01*
X105248989Y-87703073D02*
X105248989Y-83981011D01*
X103665000Y-89535000D02*
X103665000Y-88265000D01*
X103030000Y-93345000D02*
X103665000Y-92710000D01*
X101600000Y-93345000D02*
X103030000Y-93345000D01*
X103665000Y-93345000D02*
X103030000Y-93345000D01*
X103665000Y-93345000D02*
X103665000Y-93980000D01*
X103411000Y-93345000D02*
X103665000Y-93091000D01*
X103030000Y-93345000D02*
X103411000Y-93345000D01*
X103665000Y-93091000D02*
X103665000Y-93345000D01*
X103665000Y-92710000D02*
X103665000Y-93091000D01*
X103665000Y-86995000D02*
X103665000Y-85725000D01*
X101359892Y-82309892D02*
X98425000Y-79375000D01*
X103759000Y-86487000D02*
X102235000Y-86487000D01*
X102235000Y-86487000D02*
X101502476Y-85754476D01*
X101502476Y-85754476D02*
X101359892Y-85754476D01*
X101359892Y-85754476D02*
X101359892Y-82309892D01*
D32*
X120652817Y-89715222D03*
X115194109Y-96970617D03*
X121454990Y-90312333D03*
X115316000Y-99912010D03*
X99318978Y-89628070D03*
X124877990Y-93836984D03*
X100401709Y-94513594D03*
X124967988Y-92837000D03*
X124755822Y-91701677D03*
X125018258Y-90736715D03*
X125443438Y-89831592D03*
X126199990Y-87888660D03*
X121412000Y-86233000D03*
X122249522Y-91771551D03*
X99544245Y-91756816D03*
X117035427Y-94342870D03*
X117586552Y-98896010D03*
X102714988Y-98326012D03*
X114427000Y-98171000D03*
X116126355Y-94759537D03*
X122391010Y-94264957D03*
X120223474Y-92461832D03*
X122572693Y-93221562D03*
X119065397Y-93402077D03*
X121665999Y-101726999D03*
X80264000Y-99822000D03*
X98806000Y-98806000D03*
X96266000Y-93472000D03*
X95885000Y-87376000D03*
X77334010Y-88002000D03*
X76835000Y-99187000D03*
X85344000Y-90678000D03*
X111379000Y-97409000D03*
X109601002Y-101346000D03*
X119524485Y-101346000D03*
X127127000Y-97536004D03*
X111379000Y-84963000D03*
X123190008Y-85598000D03*
X96774000Y-101205000D03*
X89506798Y-90942076D03*
X98538093Y-101266598D03*
X106045000Y-97535996D03*
X93164500Y-84401500D03*
X83057994Y-85217000D03*
X100284011Y-87179486D03*
X119854990Y-98254016D03*
X117141885Y-93346778D03*
X116760243Y-90073810D03*
X106680000Y-101386990D03*
X123825000Y-96774000D03*
X114046000Y-84581998D03*
X111759497Y-93174033D03*
X112014000Y-90805000D03*
X101600006Y-89916000D03*
X110871000Y-94742000D03*
X118732515Y-92015134D03*
X120523000Y-99822000D03*
X119088462Y-98896245D03*
X119085475Y-95759085D03*
X101451719Y-96151597D03*
X101600000Y-93345000D03*
X97790000Y-104140000D03*
X78232000Y-104140000D03*
X120650000Y-104775000D03*
X118110000Y-104775000D03*
X115570000Y-104775000D03*
X113030000Y-104775000D03*
X110490000Y-104775000D03*
X107950000Y-104775000D03*
X105410000Y-104775000D03*
X102870000Y-104775000D03*
X125730000Y-104775000D03*
X128270000Y-104775000D03*
X130810000Y-104775000D03*
X133350000Y-104775000D03*
X131064000Y-94615000D03*
X128524000Y-94615000D03*
X131064000Y-92075000D03*
X128524000Y-92075000D03*
X131064000Y-89535000D03*
X128524000Y-89535000D03*
X131064000Y-86995000D03*
X128524000Y-86995000D03*
X123190000Y-100203000D03*
X125730000Y-100203000D03*
X128270000Y-100203000D03*
X130810000Y-100203000D03*
X133350000Y-100203000D03*
X132715000Y-79375000D03*
X127635000Y-79375000D03*
X121285000Y-79375000D03*
X116205000Y-79375000D03*
X109855000Y-79375000D03*
X104775000Y-79375000D03*
X98425000Y-79375000D03*
X93345000Y-79375000D03*
X83185000Y-79375000D03*
X78105000Y-79375000D03*
M02*
